{"courses":[{"_id":"6948221adbf57a23d0b10cc0-0","title":"Creative Fundamentals","description":"Master creative fundamentals with hands-on projects, real-world case studies, and expert mentorship. Join thousands of learners transforming their careers in 2025.","creator":"Sarah Chen","difficulty":"Beginner","category":"Creative","tags":["creative","2025","career","hands-on"],"modules":[{"id":"0","title":"Week 1: Foundations","order":0,"content":"","duration":0,"resources":[{"id":"0","type":"article","title":"Welcome","url":""},{"id":"1","type":"article","title":"Tools Setup","url":""},{"id":"2","type":"article","title":"First Steps","url":""}]},{"id":"1","title":"Week 2-3: Core Skills","order":1,"content":"","duration":0,"resources":[{"id":"0","type":"article","title":"Deep Dive","url":""},{"id":"1","type":"article","title":"Patterns","url":""},{"id":"2","type":"article","title":"Best Practices","url":""}]},{"id":"2","title":"Week 4-5: Real Projects","order":2,"content":"","duration":0,"resources":[{"id":"0","type":"article","title":"Build Project 1","url":""},{"id":"1","type":"article","title":"Build Project 2","url":""},{"id":"2","type":"article","title":"Debugging","url":""}]},{"id":"3","title":"Final Week: Launch","order":3,"content":"","duration":0,"resources":[{"id":"0","type":"article","title":"Polish & Deploy","url":""},{"id":"1","type":"article","title":"Get Hired","url":""},{"id":"2","type":"article","title":"Next Steps","url":""}]}],"thumbnail":"/placeholder.svg?height=240&width=360","status":"Published","source":"official","pricing":{"isFree":false,"price":79},"stats":{"avgRating":4.5},"createdDate":"2025-12-21T16:36:42.140Z","createdAt":"2025-12-21T16:36:42.140Z","updatedAt":"2025-12-22T19:49:40.450Z"},{"_id":"6948221adbf57a23d0b10cc0-1","title":"Advanced Creative Techniques","description":"Master advanced creative techniques with hands-on projects, real-world case studies, and expert mentorship. Join thousands of learners transforming their careers in 2025.","creator":"Mike Torres","difficulty":"Beginner","category":"Creative","tags":["creative","2025","career","hands-on"],"modules":[{"id":"0","title":"Week 1: Foundations","order":0,"content":"","duration":0,"resources":[{"id":"0","type":"article","title":"Welcome","url":""},{"id":"1","type":"article","title":"Tools Setup","url":""},{"id":"2","type":"article","title":"First Steps","url":""}]},{"id":"1","title":"Week 2-3: Core Skills","order":1,"content":"","duration":0,"resources":[{"id":"0","type":"article","title":"Deep Dive","url":""},{"id":"1","type":"article","title":"Patterns","url":""},{"id":"2","type":"article","title":"Best Practices","url":""}]},{"id":"2","title":"Week 4-5: Real Projects","order":2,"content":"","duration":0,"resources":[{"id":"0","type":"article","title":"Build Project 1","url":""},{"id":"1","type":"article","title":"Build Project 2","url":""},{"id":"2","type":"article","title":"Debugging","url":""}]},{"id":"3","title":"Final Week: Launch","order":3,"content":"","duration":0,"resources":[{"id":"0","type":"article","title":"Polish & Deploy","url":""},{"id":"1","type":"article","title":"Get Hired","url":""},{"id":"2","type":"article","title":"Next Steps","url":""}]}],"thumbnail":"/placeholder.svg?height=240&width=360","status":"Published","source":"official","pricing":{"isFree":true,"price":99},"stats":{"avgRating":4.6},"createdDate":"2025-12-21T16:36:42.140Z","createdAt":"2025-12-21T16:36:42.140Z","updatedAt":"2025-12-22T19:49:40.450Z"},{"_id":"6948221adbf57a23d0b10cc0-2","title":"Creative Masterclass 2025","description":"Master creative masterclass 2025 with hands-on projects, real-world case studies, and expert mentorship. Join thousands of learners transforming their careers in 2025.","creator":"Emma Li","difficulty":"Beginner","category":"Creative","tags":["creative","2025","career","hands-on"],"modules":[{"id":"0","title":"Week 1: Foundations","order":0,"content":"","duration":0,"resources":[{"id":"0","type":"article","title":"Welcome","url":""},{"id":"1","type":"article","title":"Tools Setup","url":""},{"id":"2","type":"article","title":"First Steps","url":""}]},{"id":"1","title":"Week 2-3: Core Skills","order":1,"content":"","duration":0,"resources":[{"id":"0","type":"article","title":"Deep Dive","url":""},{"id":"1","type":"article","title":"Patterns","url":""},{"id":"2","type":"article","title":"Best Practices","url":""}]},{"id":"2","title":"Week 4-5: Real Projects","order":2,"content":"","duration":0,"resources":[{"id":"0","type":"article","title":"Build Project 1","url":""},{"id":"1","type":"article","title":"Build Project 2","url":""},{"id":"2","type":"article","title":"Debugging","url":""}]},{"id":"3","title":"Final Week: Launch","order":3,"content":"","duration":0,"resources":[{"id":"0","type":"article","title":"Polish & Deploy","url":""},{"id":"1","type":"article","title":"Get Hired","url":""},{"id":"2","type":"article","title":"Next Steps","url":""}]}],"thumbnail":"/placeholder.svg?height=240&width=360","status":"Published","source":"official","pricing":{"isFree":false,"price":119},"stats":{"avgRating":4.7},"createdDate":"2025-12-21T16:36:42.140Z","createdAt":"2025-12-21T16:36:42.140Z","updatedAt":"2025-12-22T19:49:40.450Z"}],"pagination":{"page":1,"limit":3,"total":31,"totalPages":11}}
